[gd_scene load_steps=10 format=2]

[ext_resource path="res://assets/chest1.png" type="Texture" id=1]
[ext_resource path="res://assets/Full Coins.png" type="Texture" id=2]
[ext_resource path="res://Chest.gd" type="Script" id=3]

[sub_resource type="CanvasItemMaterial" id=1]
particles_animation = true
particles_anim_h_frames = 8
particles_anim_v_frames = 1
particles_anim_loop = true

[sub_resource type="Gradient" id=2]
offsets = PoolRealArray( 0, 0.481481, 0.996914, 1 )
colors = PoolColorArray( 1, 1, 1, 0, 1, 1, 1, 1, 1, 1, 1, 1, 1, 1, 1, 0 )

[sub_resource type="GradientTexture" id=3]
gradient = SubResource( 2 )

[sub_resource type="Curve" id=4]
min_value = -200.0
max_value = 200.0
_data = [ Vector2( 0.00288184, 3.63635 ), 0.0, 0.0, 0, 0, Vector2( 1, 76.3636 ), 0.0, 0.0, 0, 0 ]

[sub_resource type="CurveTexture" id=5]
curve = SubResource( 4 )

[sub_resource type="ParticlesMaterial" id=6]
emission_shape = 2
emission_box_extents = Vector3( 40, 1, 1 )
flag_disable_z = true
direction = Vector3( 0, -1, 0 )
spread = 0.0
gravity = Vector3( 0, 0, 0 )
initial_velocity = 25.0
orbit_velocity = 0.0
orbit_velocity_random = 0.0
linear_accel_curve = SubResource( 5 )
scale = 2.0
color_ramp = SubResource( 3 )
anim_speed = 5.0

[node name="Chest" type="Area2D"]
script = ExtResource( 3 )

[node name="Chest" type="Sprite" parent="."]
texture = ExtResource( 1 )

[node name="CollisionPolygon2D" type="CollisionPolygon2D" parent="."]
position = Vector2( -8.33171, 16.7316 )
polygon = PoolVector2Array( 46.5134, -106.617, -38.8376, -67.5155, -52.7124, -61.2088, -61.9623, -49.4363, -78.7802, -25.4707, -78.7802, -17.0618, -70.3712, -5.70964, -67.8486, 27.9262, 19.1842, 71.2324, 97.808, 30.8694, 96.5467, 6.90379, 109.16, 1.43797, 109.16, -26.3116, 95.2853, -40.6068, 88.5582, -86.4357, 79.3083, -95.2651 )

[node name="Coins" type="Particles2D" parent="."]
material = SubResource( 1 )
emitting = false
amount = 10
lifetime = 4.0
one_shot = true
speed_scale = 5.0
explosiveness = 0.6
process_material = SubResource( 6 )
texture = ExtResource( 2 )
[connection signal="input_event" from="." to="." method="_on_Chest_input_event"]
