[gd_scene load_steps=7 format=2]

[ext_resource path="res://assets/Torch Side.png" type="Texture" id=1]

[sub_resource type="Gradient" id=1]
offsets = PoolRealArray( 0.00740741, 0.555556, 1 )
colors = PoolColorArray( 1, 1, 1, 1, 0.847059, 0.517647, 0.054902, 0.721569, 1, 0, 0, 0.498039 )

[sub_resource type="GradientTexture" id=2]
gradient = SubResource( 1 )

[sub_resource type="Curve" id=3]
_data = [ Vector2( 0, 0.884091 ), 0.0, 0.0, 0, 0, Vector2( 1, 0.411364 ), 0.0, 0.0, 0, 0 ]

[sub_resource type="CurveTexture" id=4]
curve = SubResource( 3 )

[sub_resource type="ParticlesMaterial" id=5]
emission_shape = 2
emission_box_extents = Vector3( 15, 18, 1 )
flag_disable_z = true
direction = Vector3( 0, -1, 0 )
spread = 0.0
gravity = Vector3( 0, 0, 0 )
initial_velocity = 50.0
angular_velocity = 350.0
angular_velocity_random = 1.0
orbit_velocity = 0.0
orbit_velocity_random = 0.0
linear_accel = 25.0
angle = 45.0
scale = 25.0
scale_curve = SubResource( 4 )
color_ramp = SubResource( 2 )

[node name="Torch" type="Sprite"]
texture = ExtResource( 1 )
__meta__ = {
"_edit_group_": true
}

[node name="Particles2D" type="Particles2D" parent="."]
show_behind_parent = true
position = Vector2( 8.3299, -36.1004 )
amount = 100
lifetime = 2.0
speed_scale = 2.0
process_material = SubResource( 5 )
